광명시 챗GPT - 챗GPT 데이터 사이언스
…
    저자

    소속

      이광춘 

              한국 R 사용자회

1 데이터

2023년 9월 현소유자 사용본거지(상세)(USE_STRNGHLD_ADRES_NM) 혹은 현소유자 주소(상세)(OWNER_ADRES_NM) 두곳중 한 곳이 “경기도 광명시”인 차량을 대상으로 분석진행함.

자료출처: 국토교통 통계누리 https://stat.molit.go.kr/portal/main/portalMain.do

#> # A tibble: 548 × 53
#>    ROW_ID  EXTRACT_DE CL_HMMD_IMP_SE_NM ORG_CAR_MAKER_KOR ORG_CAR_MAKER_ENG
#>    <chr>   <chr>      <chr>             <chr>             <chr>            
#>  1 1000066 20230901   국산              현대              HYUNDAI          
#>  2 1000199 20230901   국산              현대              HYUNDAI          
#>  3 1000454 20230901   국산              기아              KIA              
#>  4 1001749 20230901   국산              기아              KIA              
#>  5 1001794 20230901   국산              현대              HYUNDAI          
#>  6 1001983 20230901   국산              현대              HYUNDAI          
#>  7 1002091 20230901   국산              기아              KIA              
#>  8 1002139 20230901   국산              현대              HYUNDAI          
#>  9 1002608 20230901   국산              현대              HYUNDAI          
#> 10 1002632 20230901   국산              현대              HYUNDAI          
#> # ℹ 538 more rows
#> # ℹ 48 more variables: CAR_MAKER_KOR <chr>, ORG_CAR_NATION <chr>,
#> #   CAR_NATION <chr>, CAR_MOEL_DT <chr>, CAR_MOEL_DT_ENG <chr>,
#> #   CAR_MODEL_KOR <chr>, CAR_MODEL_ENG <chr>, PROJECT_CD <chr>, CNM <chr>,
#> #   SPCF_MODEL_YEAR <chr>, FRST_REGIST_YEAR <chr>, FRST_REGIST_DE <chr>,
#> #   YBL_MD <chr>, JS <chr>, SSSGB <chr>, CAR_SZ <chr>, CAR_BT <chr>,
#> #   FUEL1 <chr>, FUEL2 <chr>, DSPLVL <chr>, GRBX_KND_NM <chr>, CBD_LT <chr>, …
…
