광명시 챗GPT - 재미날것 같은 통계학
…
코드
trials <- rep(100, 1000)

get_srs <- function(n_sample = 100) {
  srs_penguins <- penguins |> 
    slice_sample(n = n_sample)
  
  return(srs_penguins)
}

get_srs(100)

# A tibble: 100 × 8
   species island    bill_length_mm bill_depth_mm flipper_length_mm body_mass_g
   <fct>   <fct>              <dbl>         <dbl>             <int>       <int>
 1 Adelie  Torgersen           34.6          21.1               198        4400
 2 Gentoo  Biscoe              42.8          14.2               209        4700
 3 Adelie  Torgersen           41.8          19.4               198        4450
 4 Adelie  Biscoe              42            19.5               200        4050
 5 Gentoo  Biscoe              49.8          15.9               229        5950
 6 Adelie  Dream               39.2          18.6               190        4250
 7 Gentoo  Biscoe              46.8          16.1               215        5500
 8 Gentoo  Biscoe              47.3          15.3               222        5250
 9 Adelie  Dream               36.2          17.3               187        3300
10 Adelie  Biscoe              38.8          17.2               180        3800
# ℹ 90 more rows
# ℹ 2 more variables: sex <fct>, year <int>
…
